forename,surname,email,,,,,,,,,,,,,,,,,,,,,,,,,,
Akim,Polakovs,akim.polakovs@eddiversity.blackpool.sch.uk,,,,,,,,,,,,,,,,,,,,,,,,,,
Alex,Hitchen,alex.hitchen@eddiversity.blackpool.sch.uk,,,,,,,,,,,,,,,,,,,,,,,,,,
Alison,Bellaby,alison.bellaby@eddiversity.blackpool.sch.uk,,,,,,,,,,,,,,,,,,,,,,,,,,
Andrew,Brooke,andrew.brooke@eddiversity.blackpool.sch.uk,,,,,,,,,,,,,,,,,,,,,,,,,,
Andrew,Mell,andrew.mell@eddiversity.blackpool.sch.uk,,,,,,,,,,,,,,,,,,,,,,,,,,
Angela,Heald,angela.heald@eddiversity.blackpool.sch.uk,,,,,,,,,,,,,,,,,,,,,,,,,,
Anna,Dootson,anna.dootson@eddiversity.blackpool.sch.uk,,,,,,,,,,,,,,,,,,,,,,,,,,
Anthony,Riley,anthony.riley@eddiversity.blackpool.sch.uk,,,,,,,,,,,,,,,,,,,,,,,,,,
Barbara,Lancaster,barbara.lancaster@eddiversity.blackpool.sch.uk,,,,,,,,,,,,,,,,,,,,,,,,,,
Barry,Gore,barry.gore@eddiversity.blackpool.sch.uk,,,,,,,,,,,,,,,,,,,,,,,,,,
Blake,Greaves,blake.greaves@eddiversity.blackpool.sch.uk,,,,,,,,,,,,,,,,,,,,,,,,,,
Bobby,Moss,bobby.moss@eddiversity.blackpool.sch.uk,,,,,,,,,,,,,,,,,,,,,,,,,,
Callum,Thompson,callum.thompson@eddiversity.blackpool.sch.uk,,,,,,,,,,,,,,,,,,,,,,,,,,
Carol,Bramhall,carol.bramhall@eddiversity.blackpool.sch.uk,,,,,,,,,,,,,,,,,,,,,,,,,,
Carolyn,Lee,carolyn.lee@eddiversity.blackpool.sch.uk,,,,,,,,,,,,,,,,,,,,,,,,,,
Catherine,Shevlin,catherine.shevlin@eddiversity.blackpool.sch.uk,,,,,,,,,,,,,,,,,,,,,,,,,,
Cheryl,Bridges,cheryl.bridges@eddiversity.blackpool.sch.uk,,,,,,,,,,,,,,,,,,,,,,,,,,
Chris,Mannion,chris.mannion@eddiversity.blackpool.sch.uk,,,,,,,,,,,,,,,,,,,,,,,,,,
Clare,Brown,clare.brown@eddiversity.blackpool.sch.uk,,,,,,,,,,,,,,,,,,,,,,,,,,
Dan,Halton,dan.halton@eddiversity.blackpool.sch.uk,,,,,,,,,,,,,,,,,,,,,,,,,,
Danielle,Cain,danielle.cain@eddiversity.blackpool.sch.uk,,,,,,,,,,,,,,,,,,,,,,,,,,
Danny,Dicken,danny.dicken@eddiversity.blackpool.sch.uk,,,,,,,,,,,,,,,,,,,,,,,,,,
Darius,Robinson,darius.robinson@eddiversity.blackpool.sch.uk,,,,,,,,,,,,,,,,,,,,,,,,,,
Evie,Thompson,evie.thompson@eddiversity.blackpool.sch.uk,,,,,,,,,,,,,,,,,,,,,,,,,,
Fiona,Shaw,fiona.shaw@eddiversity.blackpool.sch.uk,,,,,,,,,,,,,,,,,,,,,,,,,,
Gina,Barton,gina.barton@eddiversity.blackpool.sch.uk,,,,,,,,,,,,,,,,,,,,,,,,,,
Hayley,Coulter,hayley.coulter@eddiversity.blackpool.sch.uk,,,,,,,,,,,,,,,,,,,,,,,,,,
Hazel,Mountain,hazel.mountain@eddiversity.blackpool.sch.uk,,,,,,,,,,,,,,,,,,,,,,,,,,
Heather,Smith,heather.smith@eddiversity.blackpool.sch.uk,,,,,,,,,,,,,,,,,,,,,,,,,,
Helen,Ward,helen.ward@eddiversity.blackpool.sch.uk,,,,,,,,,,,,,,,,,,,,,,,,,,
James,Parkinson,james.parkinson@eddiversity.blackpool.sch.uk,,,,,,,,,,,,,,,,,,,,,,,,,,
Janette,Dickin,janette.dickin@eddiversity.blackpool.sch.uk,,,,,,,,,,,,,,,,,,,,,,,,,,
Jill,Fletcher,jill.fletcher@eddiversity.blackpool.sch.uk,,,,,,,,,,,,,,,,,,,,,,,,,,
Jordana,Roskell,jordana.roskell@eddiversity.blackpool.sch.uk,,,,,,,,,,,,,,,,,,,,,,,,,,
Julie,Catherall,julie.catherall@eddiversity.blackpool.sch.uk,,,,,,,,,,,,,,,,,,,,,,,,,,
Karen,Turner,karen.turner@eddiversity.blackpool.sch.uk,,,,,,,,,,,,,,,,,,,,,,,,,,
Karen,Lewis,karen.lewis@eddiversity.blackpool.sch.uk,,,,,,,,,,,,,,,,,,,,,,,,,,
Katalin,Clews,katalin.clews@eddiversity.blackpool.sch.uk,,,,,,,,,,,,,,,,,,,,,,,,,,
Kathryn,Evans,kathryn.evans@eddiversity.blackpool.sch.uk,,,,,,,,,,,,,,,,,,,,,,,,,,
Katie,Campbell,katie.campbell@eddiversity.blackpool.sch.uk,,,,,,,,,,,,,,,,,,,,,,,,,,
Kelly,Hancock,kelly.hancock@eddiversity.blackpool.sch.uk,,,,,,,,,,,,,,,,,,,,,,,,,,
Kerry,Ashton-Armstrong,kerry.ashton-a@eddiversity.blackpool.sch.uk,,,,,,,,,,,,,,,,,,,,,,,,,,
Lesley,Winters,lesley.winters@eddiversity.blackpool.sch.uk,,,,,,,,,,,,,,,,,,,,,,,,,,
Lesley,Polakovs,lesley.polakovs@eddiversity.blackpool.sch.uk,,,,,,,,,,,,,,,,,,,,,,,,,,
Lewis,Sowerby,lewis.sowerby@eddiversity.blackpool.sch.uk,,,,,,,,,,,,,,,,,,,,,,,,,,
Lorna,Manning,lorna.manning@eddiversity.blackpool.sch.uk,,,,,,,,,,,,,,,,,,,,,,,,,,
Matt,Daniels,matt.daniels@eddiversity.blackpool.sch.uk,,,,,,,,,,,,,,,,,,,,,,,,,,
Melissa,Barker,melissa.barker@eddiversity.blackpool.sch.uk,,,,,,,,,,,,,,,,,,,,,,,,,,
Michael,Turner,michael.turner@eddiversity.blackpool.sch.uk,,,,,,,,,,,,,,,,,,,,,,,,,,
Michelle,Broughton,michelle.broughton@eddiversity.blackpool.sch.uk,,,,,,,,,,,,,,,,,,,,,,,,,,
Michelle,Mortimer,michelle.mortimer@eddiversity.blackpool.sch.uk,,,,,,,,,,,,,,,,,,,,,,,,,,
Mike,Byrom,mike.byrom@eddiversity.blackpool.sch.uk,,,,,,,,,,,,,,,,,,,,,,,,,,
Natalie,Keller,natalie.keller@eddiversity.blackpool.sch.uk,,,,,,,,,,,,,,,,,,,,,,,,,,
Nikki,Hilton,nikki.hilton@eddiversity.blackpool.sch.uk,,,,,,,,,,,,,,,,,,,,,,,,,,
Pamela,Aspin,pamela.aspin@eddiversity.blackpool.sch.uk,,,,,,,,,,,,,,,,,,,,,,,,,,
Pat,Burns,pat.burns@eddiversity.blackpool.sch.uk,,,,,,,,,,,,,,,,,,,,,,,,,,
Patrick,Brocklebank,patrick.brocklebank@eddiversity.blackpool.sch.uk,,,,,,,,,,,,,,,,,,,,,,,,,,
Peter,Boldy,peter.boldy@eddiversity.blackpool.sch.uk,,,,,,,,,,,,,,,,,,,,,,,,,,
Rachel,Muller,rachel.muller@eddiversity.blackpool.sch.uk,,,,,,,,,,,,,,,,,,,,,,,,,,
Rachel,Ellis,rachel.ellis@eddiversity.blackpool.sch.uk,,,,,,,,,,,,,,,,,,,,,,,,,,
Ramazan,Ali,ramazan.ali@eddiversity.blackpool.sch.uk,,,,,,,,,,,,,,,,,,,,,,,,,,
Rebecca,Kenyon,rebecca.kenyon@eddiversity.blackpool.sch.uk,,,,,,,,,,,,,,,,,,,,,,,,,,
Sally,Rutter,sally.rutter@eddiversity.blackpool.sch.uk,,,,,,,,,,,,,,,,,,,,,,,,,,
Sam,Reeves,sam.reeves@eddiversity.blackpool.sch.uk,,,,,,,,,,,,,,,,,,,,,,,,,,
Sam,Hancock,sam.hancock@eddiversity.blackpool.sch.uk,,,,,,,,,,,,,,,,,,,,,,,,,,
Sam,Slingsby,sam.slingsby@eddiversity.blackpool.sch.uk,,,,,,,,,,,,,,,,,,,,,,,,,,
Simon,Coulter,simon.coulter@eddiversity.blackpool.sch.uk,,,,,,,,,,,,,,,,,,,,,,,,,,
Sophie,Williams,sophie.williams@eddiversity.blackpool.sch.uk,,,,,,,,,,,,,,,,,,,,,,,,,,
Steve,Jenkinson,steve.jenkinson@eddiversity.blackpool.sch.uk,,,,,,,,,,,,,,,,,,,,,,,,,,
Sue,Perkins,sue.perkins@eddiversity.blackpool.sch.uk,,,,,,,,,,,,,,,,,,,,,,,,,,
Suzanne,Maguire,suzanne.maguire@eddiversity.blackpool.sch.uk,,,,,,,,,,,,,,,,,,,,,,,,,,
Vicki,Reed,vicki.reed@eddiversity.blackpool.sch.uk,,,,,,,,,,,,,,,,,,,,,,,,,,
Vicky,Leah,vicky.leah@eddiversity.blackpool.sch.uk,,,,,,,,,,,,,,,,,,,,,,,,,,
Victoria,Cardwell,victoria.cardwell@eddiversity.blackpool.sch.uk,,,,,,,,,,,,,,,,,,,,,,,,,,
Vivien,Counsell-Thomas,vivien.counsell-thomas@eddiversity.blackpool.sch.uk,,,,,,,,,,,,,,,,,,,,,,,,,,
Wendy,Casson,wendy.casson@eddiversity.blackpool.sch.uk,,,,,,,,,,,,,,,,,,,,,,,,,,

